{
  "ID": "CME101",
  "Name": "Chemical Engineering 1",
  "Department": "Engineering",
  "Cost": 499.99,
  "Registration": {
    "CourseID": "CME101",
    "ProfessorID": null,
    "StudentIDs": [],
    "Course": null,
    "Professor": null,
    "Students": null
  }
}